{
  "permissions": {
    "/students": [
      "ROLE_ADMIN",
      "ROLE_USER"
    ]
  },
  "users": [
    {
      "id": 1,
      "username": "test1",
      "password": "test1",
      "roles": [
        "ROLE_ADMIN"
      ]
    },
    {
      "id": 2,
      "username": "test2",
      "password": "test2",
      "roles": [
        "ROLE_USER"
      ]
    }
  ],
  "students": [
    {
      "id": 1,
      "ime": "Pera",
      "prezime": "Perić",
      "brojIndeksa": "1234/123456"
    },
    {
      "id": 2,
      "ime": "Marko",
      "prezime": "Marković",
      "brojIndeksa": "2345/123456"
    }
  ],
  "ocene": [
    {
      "id": 1,
      "ocena": 10,
      "studentId": 1
    },
    {
      "id": 2,
      "ocena": 7,
      "studentId": 2
    }
  ]
}