{
  "permissions": {
    "/rents": [
      "ROLE_USER",
      "ROLE_ADMIN"
    ]
  },
  "users": [
    {
      "id": 1,
      "username": "admin",
      "password": "admin",
      "roles": [
        "ROLE_ADMIN"
      ]
    },
    {
      "id": 2,
      "username": "user",
      "password": "user",
      "roles": [
        "ROLE_USER"
      ]
    }
  ],
  "books": [
    {
      "id": 1,
      "title": "Hyperion",
      "author": "Dan Simmons",
      "genre": "Soft science fiction"
    },
    {
      "id": 2,
      "title": "Endymion",
      "author": "Dan Simmons",
      "genre": "Science fiction"
    }
  ],
  "rents": [
    {
      "id": 1,
      "userId": 1,
      "bookId": 2,
      "rentDate": "2021-05-25",
      "returnDate": "2021-06-05",
      "state": "returned",
      "price": 300
    },
    {
      "id": 2,
      "userId": 2,
      "bookId": 2,
      "rentDate": "2021-05-30",
      "returnDate": "2021-06-12",
      "state": "borrowed",
      "price": 250
    }
  ]
}